32	96
25	70
96	30
62	89
49	68
71	70
38	12
14	63
63	71
22	99
73	45
94	26
18	32
79	85
84	85
1	3
12	15
79	68
59	13
10	18
20	22
85	33
69	43
78	15
3	41
84	76
26	8
78	18
66	15
87	92
86	65
62	40
23	35
87	11
60	38
54	36
39	8
28	31
81	46
81	71
1	45
41	21
2	74
73	96
74	78
11	46
93	25
96	44
95	81
42	49
